<?xml version="1.0" encoding="UTF-8"?>
<svg width="28px" height="25px" viewBox="0 0 28 25" version="1.1" xmlns="http://www.w3.org/2000/svg" xmlns:xlink="http://www.w3.org/1999/xlink">
    <!-- Generator: Sketch 46.2 (44496) - http://www.bohemiancoding.com/sketch -->
    <title>login-square-arrow-button-outline</title>
    <desc>Created with Sketch.</desc>
    <defs></defs>
    <g id="Welcome" stroke="none" stroke-width="1" fill="none" fill-rule="evenodd">
        <g id="home" transform="translate(-1002.000000, -33.000000)" fill-rule="nonzero" fill="#004930">
            <g id="Fejléc" transform="translate(390.000000, 30.000000)">
                <g id="Group-2" transform="translate(612.000000, 2.000000)">
                    <g id="login-square-arrow-button-outline" transform="translate(0.000000, 1.000000)">
                        <path d="M15.1751307,18.0732026 C14.833,18.4223623 14.833,18.9874883 15.1751307,19.3357143 C15.5173072,19.6848273 16.0711307,19.6848273 16.4123922,19.3357143 L22.449,13.1750233 C22.6310458,12.9892624 22.708915,12.7419701 22.6966078,12.4990663 C22.708915,12.2553221 22.631,12.0089169 22.449,11.8232026 L16.4123922,5.66339869 C16.0711307,5.31428571 15.5163922,5.31428571 15.1751307,5.66339869 C14.833,6.01251167 14.833,6.57768441 15.1751307,6.92586368 L19.7627386,11.6070962 L0.875,11.6070962 C0.392,11.6071429 0,12.0071429 0,12.5 C0,12.9928571 0.392,13.3928571 0.875,13.3928571 L19.7627386,13.3928571 L15.1751307,18.0732026 Z M24.5,0 L7,0 C5.06713072,0 3.5,1.59911298 3.5,3.57142857 L3.5,7.14285714 L5.25,7.14285714 L5.25,3.57142857 C5.25,2.58571429 6.03313072,1.78571429 7,1.78571429 L24.5,1.78571429 C25.4668693,1.78571429 26.25,2.58571429 26.25,3.57142857 L26.25,21.4285714 C26.25,22.4142857 25.4668693,23.2142857 24.5,23.2142857 L7,23.2142857 C6.03313072,23.2142857 5.25,22.4151727 5.25,21.4285714 L5.25,17.8571429 L3.5,17.8571429 L3.5,21.4285714 C3.5,23.400887 5.06713072,25 7,25 L24.5,25 C26.4328693,25 28,23.400887 28,21.4285714 L28,3.57142857 C28,1.59911298 26.4328693,0 24.5,0 Z" id="Shape"></path>
                    </g>
                </g>
            </g>
        </g>
    </g>
</svg>