<?xml version="1.0" encoding="UTF-8"?>
<svg width="50px" height="50px" viewBox="0 0 50 50" version="1.1" xmlns="http://www.w3.org/2000/svg" xmlns:xlink="http://www.w3.org/1999/xlink">
    <!-- Generator: Sketch 51.1 (57501) - http://www.bohemiancoding.com/sketch -->
    <title>Group 7</title>
    <desc>Created with Sketch.</desc>
    <defs></defs>
    <g id="Welcome" stroke="none" stroke-width="1" fill="none" fill-rule="evenodd">
        <g id="home" transform="translate(-1648.000000, -1454.000000)">
            <g id="Partnereink" transform="translate(620.000000, 1310.000000)">
                <g id="Group-7" transform="translate(1053.000000, 169.000000) scale(-1, 1) translate(-1053.000000, -169.000000) translate(1028.000000, 144.000000)">
                    <rect id="Rectangle-12" stroke="#979797" fill="#738D40" x="0.5" y="0.5" width="49" height="49" rx="4"></rect>
                    <g id="right-arrow" transform="translate(25.000000, 25.000000) scale(-1, 1) translate(-25.000000, -25.000000) translate(17.000000, 10.000000)" fill="#FFFFFF" fill-rule="nonzero">
                        <path d="M1.80354267,29.6896552 C1.59742351,29.8965517 1.33977456,30 1.05636071,30 C0.77294686,30 0.515297907,29.8965517 0.309178744,29.6896552 C-0.103059581,29.2758621 -0.103059581,28.6034483 0.309178744,28.1896552 L13.4492754,15 L0.309178744,1.81034483 C-0.103059581,1.39655172 -0.103059581,0.724137931 0.309178744,0.310344828 C0.721417069,-0.103448276 1.39130435,-0.103448276 1.80354267,0.310344828 L15.6908213,14.25 C16.1030596,14.6637931 16.1030596,15.3362069 15.6908213,15.75 L1.80354267,29.6896552 Z" id="Shape"></path>
                    </g>
                </g>
            </g>
        </g>
    </g>
</svg>