<?xml version="1.0" encoding="UTF-8"?>
<svg width="105px" height="4px" viewBox="0 0 105 4" version="1.1" xmlns="http://www.w3.org/2000/svg" xmlns:xlink="http://www.w3.org/1999/xlink">
    <!-- Generator: Sketch 51.1 (57501) - http://www.bohemiancoding.com/sketch -->
    <title>title_svg</title>
    <desc>Created with Sketch.</desc>
    <defs></defs>
    <g id="Welcome" stroke="none" stroke-width="1" fill="none" fill-rule="evenodd" stroke-linecap="square">
        <g id="home" transform="translate(-604.000000, -340.000000)">
            <g id="title_svg" transform="translate(606.000000, 341.000000)">
                <g id="Line-2">
                    <path d="M-8.67361738e-17,1 L50,1" stroke="#F0B83C" stroke-width="3"></path>
                    <path d="M51,1 L101,1" stroke="#6D7E40" stroke-width="3"></path>
                </g>
            </g>
        </g>
    </g>
</svg>