<?xml version="1.0" encoding="UTF-8"?>
<svg width="31px" height="3px" viewBox="0 0 31 3" version="1.1" xmlns="http://www.w3.org/2000/svg" xmlns:xlink="http://www.w3.org/1999/xlink">
    <!-- Generator: Sketch 52.4 (67378) - http://www.bohemiancoding.com/sketch -->
    <title>title_svg</title>
    <desc>Created with Sketch.</desc>
    <g id="Welcome" stroke="none" stroke-width="1" fill="none" fill-rule="evenodd" stroke-linecap="square">
        <g id="tanulmányok-végoldal" transform="translate(-541.000000, -479.000000)">
            <g id="Group-4" transform="translate(360.000000, -3.000000)">
                <g id="Tanulmány" transform="translate(151.000000, 386.000000)">
                    <g id="Group-6" transform="translate(30.000000, 75.000000)">
                        <g id="title_svg" transform="translate(15.500000, 22.500000) scale(1, -1) translate(-15.500000, -22.500000) translate(2.000000, 22.000000)">
                            <g id="Line-2">
                                <path d="M-2.31868979e-17,0.5 L13.3663366,0.5" stroke="#F0B83C" stroke-width="3"></path>
                                <path d="M13.6336634,0.5 L27,0.5" stroke="#6D7E40" stroke-width="3"></path>
                            </g>
                        </g>
                    </g>
                </g>
            </g>
        </g>
    </g>
</svg>