<?xml version="1.0" encoding="UTF-8"?>
<svg width="16px" height="16px" viewBox="0 0 16 16" version="1.1" xmlns="http://www.w3.org/2000/svg" xmlns:xlink="http://www.w3.org/1999/xlink">
    <!-- Generator: Sketch 46.2 (44496) - http://www.bohemiancoding.com/sketch -->
    <title>four-squares-list</title>
    <desc>Created with Sketch.</desc>
    <defs></defs>
    <g id="Page-1" stroke="none" stroke-width="1" fill="none" fill-rule="evenodd">
        <g id="four-squares-list" fill-rule="nonzero">
            <rect id="Rectangle-path" fill="#193D2A" x="0" y="0" width="7.52750006" height="7.50468882"></rect>
            <rect id="Rectangle-path" fill="#F8C301" x="8.47249994" y="0" width="7.52750006" height="7.50468882"></rect>
            <rect id="Rectangle-path" fill="#193D2A" x="8.47249994" y="8.44682498" width="7.52750006" height="7.50468882"></rect>
            <rect id="Rectangle-path" fill="#F8C301" x="0" y="8.44682498" width="7.52750006" height="7.50468882"></rect>
        </g>
    </g>
</svg>